-- Merging decision tree log ---
manifest
ADDED from /Users/shandongyantai/Documents/android项目/SOU/securedpreferencestore/src/main/AndroidManifest.xml:1:1-7:12
INJECTED from /Users/shandongyantai/Documents/android项目/SOU/securedpreferencestore/src/main/AndroidManifest.xml:1:1-7:12
INJECTED from /Users/shandongyantai/Documents/android项目/SOU/securedpreferencestore/src/main/AndroidManifest.xml:1:1-7:12
INJECTED from /Users/shandongyantai/Documents/android项目/SOU/securedpreferencestore/src/main/AndroidManifest.xml:1:1-7:12
INJECTED from /Users/shandongyantai/Documents/android项目/SOU/securedpreferencestore/src/main/AndroidManifest.xml:1:1-7:12
INJECTED from /Users/shandongyantai/Documents/android项目/SOU/securedpreferencestore/src/main/AndroidManifest.xml:1:1-7:12
INJECTED from /Users/shandongyantai/Documents/android项目/SOU/securedpreferencestore/src/main/AndroidManifest.xml:1:1-7:12
	package
		ADDED from /Users/shandongyantai/Documents/android项目/SOU/securedpreferencestore/src/main/AndroidManifest.xml:3:5-54
		INJECTED from /Users/shandongyantai/Documents/android项目/SOU/securedpreferencestore/src/main/AndroidManifest.xml
		INJECTED from /Users/shandongyantai/Documents/android项目/SOU/securedpreferencestore/src/main/AndroidManifest.xml
	android:versionName
		INJECTED from /Users/shandongyantai/Documents/android项目/SOU/securedpreferencestore/src/main/AndroidManifest.xml
		ADDED from /Users/shandongyantai/Documents/android项目/SOU/securedpreferencestore/src/main/AndroidManifest.xml:1:1-7:12
		INJECTED from /Users/shandongyantai/Documents/android项目/SOU/securedpreferencestore/src/main/AndroidManifest.xml
	android:versionCode
		INJECTED from /Users/shandongyantai/Documents/android项目/SOU/securedpreferencestore/src/main/AndroidManifest.xml
		ADDED from /Users/shandongyantai/Documents/android项目/SOU/securedpreferencestore/src/main/AndroidManifest.xml:1:1-7:12
		INJECTED from /Users/shandongyantai/Documents/android项目/SOU/securedpreferencestore/src/main/AndroidManifest.xml
	xmlns:android
		ADDED from /Users/shandongyantai/Documents/android项目/SOU/securedpreferencestore/src/main/AndroidManifest.xml:2:5-63
application
ADDED from /Users/shandongyantai/Documents/android项目/SOU/securedpreferencestore/src/main/AndroidManifest.xml:5:5-20
uses-sdk
INJECTED from /Users/shandongyantai/Documents/android项目/SOU/securedpreferencestore/src/main/AndroidManifest.xml reason: use-sdk injection requested
INJECTED from /Users/shandongyantai/Documents/android项目/SOU/securedpreferencestore/src/main/AndroidManifest.xml
INJECTED from /Users/shandongyantai/Documents/android项目/SOU/securedpreferencestore/src/main/AndroidManifest.xml
INJECTED from /Users/shandongyantai/Documents/android项目/SOU/securedpreferencestore/src/main/AndroidManifest.xml
INJECTED from /Users/shandongyantai/Documents/android项目/SOU/securedpreferencestore/src/main/AndroidManifest.xml
	android:targetSdkVersion
		INJECTED from /Users/shandongyantai/Documents/android项目/SOU/securedpreferencestore/src/main/AndroidManifest.xml
		ADDED from /Users/shandongyantai/Documents/android项目/SOU/securedpreferencestore/src/main/AndroidManifest.xml
		INJECTED from /Users/shandongyantai/Documents/android项目/SOU/securedpreferencestore/src/main/AndroidManifest.xml
	android:minSdkVersion
		INJECTED from /Users/shandongyantai/Documents/android项目/SOU/securedpreferencestore/src/main/AndroidManifest.xml
		ADDED from /Users/shandongyantai/Documents/android项目/SOU/securedpreferencestore/src/main/AndroidManifest.xml
		INJECTED from /Users/shandongyantai/Documents/android项目/SOU/securedpreferencestore/src/main/AndroidManifest.xml
